﻿[
  {
    "outputFile": "Content/css/mixins.css",
    "inputFile": "Content/css/mixins.less"
  },
  {
    "outputFile": "Content/css/sb-admin-2.css",
    "inputFile": "Content/css/sb-admin-2.less"
  },
  {
    "outputFile": "Content/css/variables.css",
    "inputFile": "Content/css/variables.less"
  },
  {
    "outputFile": "Content/css/style.base.css",
    "inputFile": "Content/css/style.base.less"
  },
  {
    "outputFile": "Content/css/style.bootstrap3.css",
    "inputFile": "Content/css/style.bootstrap3.less"
  },
  {
    "outputFile": "Content/css/style.css",
    "inputFile": "Content/css/style.less"
  },
  {
    "outputFile": "Content/css/style.dataTables.css",
    "inputFile": "Content/css/style.dataTables.less"
  }
]